{
	"type": "Collection",
	"properties": {
		"location_name": {
			"name": "location_name",
			"type": "string",
			"typeLabel": "string",
			"required": false,
			"id": "location_name",
			"order": 0
		},
		"is_activated": {
			"name": "is_activated",
			"type": "boolean",
			"typeLabel": "boolean",
			"required": false,
			"id": "is_activated",
			"order": 1
		}
	}
}