{
	"type": "Collection",
	"properties": {
		"view": {
			"name": "view",
			"type": "boolean",
			"typeLabel": "boolean",
			"required": false,
			"id": "view",
			"order": 0
		},
		"edit": {
			"name": "edit",
			"type": "boolean",
			"typeLabel": "boolean",
			"required": false,
			"id": "edit",
			"order": 1
		}
	}
}